C:\Users\carlos.augusto\Desktop\MeuAmbiente\WorkSpace\webContatos\src\main\java\webContatos\vo\ContactListVO.java
C:\Users\carlos.augusto\Desktop\MeuAmbiente\WorkSpace\webContatos\src\main\java\webContatos\model\User.java
C:\Users\carlos.augusto\Desktop\MeuAmbiente\WorkSpace\webContatos\src\main\java\webContatos\service\ContactService.java
C:\Users\carlos.augusto\Desktop\MeuAmbiente\WorkSpace\webContatos\src\main\java\webContatos\service\UserService.java
C:\Users\carlos.augusto\Desktop\MeuAmbiente\WorkSpace\webContatos\src\main\java\webContatos\controller\ContactsController.java
C:\Users\carlos.augusto\Desktop\MeuAmbiente\WorkSpace\webContatos\src\main\java\webContatos\controller\HomeController.java
C:\Users\carlos.augusto\Desktop\MeuAmbiente\WorkSpace\webContatos\src\main\java\webContatos\model\Contact.java
C:\Users\carlos.augusto\Desktop\MeuAmbiente\WorkSpace\webContatos\src\main\java\webContatos\interceptor\LoginInterceptor.java
C:\Users\carlos.augusto\Desktop\MeuAmbiente\WorkSpace\webContatos\src\main\java\webContatos\controller\IndexController.java
C:\Users\carlos.augusto\Desktop\MeuAmbiente\WorkSpace\webContatos\src\main\java\webContatos\repository\UserRepository.java
C:\Users\carlos.augusto\Desktop\MeuAmbiente\WorkSpace\webContatos\src\main\java\webContatos\controller\LoginController.java
C:\Users\carlos.augusto\Desktop\MeuAmbiente\WorkSpace\webContatos\src\main\java\webContatos\repository\ContactRepository.java
C:\Users\carlos.augusto\Desktop\MeuAmbiente\WorkSpace\webContatos\src\main\java\webContatos\model\Role.java
